<?xml version="1.0" encoding="UTF-8" standalone="no"?>
<!-- Created with Inkscape (http://www.inkscape.org/) -->

<svg
   xmlns:dc="http://purl.org/dc/elements/1.1/"
   xmlns:cc="http://creativecommons.org/ns#"
   xmlns:rdf="http://www.w3.org/1999/02/22-rdf-syntax-ns#"
   xmlns:svg="http://www.w3.org/2000/svg"
   xmlns="http://www.w3.org/2000/svg"
   xmlns:sodipodi="http://sodipodi.sourceforge.net/DTD/sodipodi-0.dtd"
   xmlns:inkscape="http://www.inkscape.org/namespaces/inkscape"
   width="7.4568071mm"
   height="10.847933mm"
   viewBox="0 0 7.4568071 10.847933"
   version="1.1"
   id="svg8"
   inkscape:version="0.92.5 (2060ec1f9f, 2020-04-08)"
   sodipodi:docname="marker-icon-regosh.svg">
  <defs
     id="defs2" />
  <sodipodi:namedview
     id="base"
     pagecolor="#ffffff"
     bordercolor="#666666"
     borderopacity="1.0"
     inkscape:pageopacity="0.0"
     inkscape:pageshadow="2"
     inkscape:zoom="7.9195959"
     inkscape:cx="-32.912081"
     inkscape:cy="25.844374"
     inkscape:document-units="mm"
     inkscape:current-layer="layer1"
     showgrid="false"
     inkscape:window-width="1920"
     inkscape:window-height="936"
     inkscape:window-x="0"
     inkscape:window-y="27"
     inkscape:window-maximized="1" />
  <metadata
     id="metadata5">
    <rdf:RDF>
      <cc:Work
         rdf:about="">
        <dc:format>image/svg+xml</dc:format>
        <dc:type
           rdf:resource="http://purl.org/dc/dcmitype/StillImage" />
        <dc:title />
      </cc:Work>
    </rdf:RDF>
  </metadata>
  <g
     inkscape:label="Camada 1"
     inkscape:groupmode="layer"
     id="layer1"
     transform="translate(56.742294,-117.72979)">
    <text
       id="text446"
       y="124.01684"
       x="-67.254631"
       style="font-size:0.5201627px;line-height:1.25;font-family:sans-serif;letter-spacing:0px;stroke-width:0.01300409"
       xml:space="preserve"><tspan
         style="stroke-width:0.01300409"
         y="124.47706"
         x="-67.254631"
         id="tspan444"
         sodipodi:role="line" /></text>
    <text
       id="text568"
       y="124.13857"
       x="-70.047447"
       style="font-size:0.5201627px;line-height:1.25;font-family:sans-serif;letter-spacing:0px;stroke-width:0.01300409"
       xml:space="preserve"><tspan
         style="stroke-width:0.01300409"
         y="124.59879"
         x="-70.047447"
         id="tspan566"
         sodipodi:role="line" /></text>
    <g
       id="g1241"
       transform="translate(13.229167,0.16536458)">
      <path
         sodipodi:nodetypes="ccscscsscccssccc"
         inkscape:connector-curvature="0"
         id="path21-5"
         d="m -66.382055,128.39 c -0.08153,-0.0369 -0.148906,-0.11999 -0.475554,-0.58603 -1.350494,-1.92683 -2.394773,-3.80766 -2.831751,-5.10018 -0.298579,-0.88315 -0.351129,-1.45817 -0.200167,-2.19024 0.09152,-0.44381 0.336424,-1.00032 0.608914,-1.38364 0.183742,-0.25848 0.616573,-0.69131 0.875053,-0.87505 0.240163,-0.17072 0.718734,-0.41395 0.991291,-0.50381 0.754624,-0.24879 1.589218,-0.24879 2.34384,0 0.272557,0.0898 0.751129,0.33309 0.991291,0.50381 0.258481,0.18374 0.691312,0.61657 0.875054,0.87505 0.272325,0.38309 0.517047,0.93905 0.609061,1.38364 0.148452,0.71729 0.0953,1.31364 -0.193308,2.16869 -0.42866,1.27001 -1.41951,3.07396 -2.707827,4.92989 -0.399287,0.57521 -0.50002,0.70871 -0.568736,0.75374 -0.07669,0.0502 -0.233268,0.0621 -0.317161,0.0241 z"
         style="fill:#ffffff;stroke:none;stroke-width:0.49459514;stroke-miterlimit:4;stroke-dasharray:none;stroke-opacity:1" />
      <path
         sodipodi:nodetypes="ccscscsscccssccccccsccsasccc"
         inkscape:connector-curvature="0"
         id="path21"
         d="m -66.382055,128.38997 c -0.08153,-0.0369 -0.148906,-0.11999 -0.475554,-0.58603 -1.350494,-1.92683 -2.394773,-3.80766 -2.831751,-5.10018 -0.298579,-0.88315 -0.351129,-1.45817 -0.200167,-2.19024 0.09152,-0.44381 0.336424,-1.00032 0.608914,-1.38364 0.183742,-0.25848 0.616573,-0.69131 0.875053,-0.87505 0.240163,-0.17072 0.718734,-0.41395 0.991291,-0.50381 0.754624,-0.24879 1.589218,-0.24879 2.34384,0 0.272557,0.0898 0.751129,0.33309 0.991291,0.50381 0.258481,0.18374 0.691312,0.61657 0.875054,0.87505 0.272325,0.38309 0.517047,0.93905 0.609061,1.38364 0.148452,0.71729 0.0953,1.31364 -0.193308,2.16869 -0.42866,1.27001 -1.41951,3.07396 -2.707827,4.92989 -0.399287,0.57521 -0.50002,0.70871 -0.568736,0.75374 -0.07669,0.0502 -0.233268,0.0621 -0.317161,0.0241 z m 0.43306,-0.68166 c 0.151598,-0.20893 0.819427,-1.14613 1.050621,-1.51616 1.193968,-1.91092 1.991587,-3.65121 2.114402,-4.62693 0.03018,-0.23974 0.02592,-0.59494 -0.0334,-0.85319 -0.364482,-1.58682 -1.558492,-2.47225 -2.575702,-2.73621 -0.567298,-0.10761 -1.107636,-0.14928 -1.620339,-0.0186 -0.597154,0.12812 -1.082084,0.44116 -1.530786,0.86123 -0.48769,0.45656 -0.855829,1.08724 -1.023917,1.73841 -0.147043,0.56964 -0.162092,1.15758 0.04774,1.7643 0.394966,1.14202 0.995675,2.53719 2.421101,4.65243 0.477558,0.70866 0.820178,1.12179 0.87455,1.04686 z"
         style="fill:#000000;stroke:none;stroke-width:0.49459514;stroke-miterlimit:4;stroke-dasharray:none;stroke-opacity:1" />
      <circle
         id="path39"
         cx="-66.243057"
         cy="121.34746"
         style="fill:#ffffff;stroke:#000000;stroke-width:0.02800128;stroke-opacity:1"
         r="3.2894044" />
      <g
         transform="matrix(0.08743154,0,0,0.08917551,-71.493996,111.68735)"
         id="g744">
        <g
           id="g7246"
           transform="matrix(0.70320212,0,0,0.70320212,70.550436,250.0501)">
          <path
             inkscape:connector-curvature="0"
             id="path5579"
             d="m -15.875,-243.95352 -37.846174,22.37017 36.883194,21.16667 38.004647,-21.62074 v 0"
             style="fill:none;stroke:#000000;stroke-width:0.26458299px;stroke-linecap:butt;stroke-linejoin:miter;stroke-opacity:1" />
          <path
             sodipodi:nodetypes="ccc"
             inkscape:connector-curvature="0"
             id="path5581"
             d="m -54.255714,-177.67068 38.380714,21.38156 -0.96298,-44.12756"
             style="fill:none;stroke:#000000;stroke-width:0.26458299px;stroke-linecap:butt;stroke-linejoin:miter;stroke-opacity:1" />
          <path
             inkscape:connector-curvature="0"
             id="path5583"
             d="m -35.274205,-210.54483 0.267269,43.29766 v 0 0"
             style="fill:none;stroke:#000000;stroke-width:0.39687499;stroke-linecap:butt;stroke-linejoin:miter;stroke-opacity:1" />
          <path
             inkscape:connector-curvature="0"
             id="path5585"
             d="m -35.012307,-189.83335 19.137307,11.62813 19.6167734,-12.56167 -0.534539,-20.23313 -18.4415974,-10.58333 19.5106755,-11.14485 17.6397885,10.69078"
             style="fill:none;stroke:#000000;stroke-width:0.39687499;stroke-linecap:butt;stroke-linejoin:miter;stroke-opacity:1" />
          <path
             inkscape:connector-curvature="0"
             id="path5587"
             d="m -15.501633,-157.09093 37.150464,-22.15909 -0.482164,-41.98559 v 0 0"
             style="fill:none;stroke:#000000;stroke-width:0.529167;stroke-linecap:butt;stroke-linejoin:miter;stroke-opacity:1" />
          <path
             inkscape:connector-curvature="0"
             id="path5589"
             d="m -63.075608,-218.83019 16.570712,8.8199 -0.534541,18.44159 -16.479194,-8.74101 z"
             style="fill:#c42021;fill-opacity:1;stroke:none;stroke-width:0.26458299px;stroke-linecap:butt;stroke-linejoin:miter;stroke-opacity:1" />
          <path
             inkscape:connector-curvature="0"
             id="path5591"
             d="m -36.081385,-189.43054 -0.267271,18.70887 -15.768902,-9.35444 v -17.90705 z"
             style="fill:#f4e409;fill-opacity:1;stroke:none;stroke-width:0.26458299px;stroke-linecap:butt;stroke-linejoin:miter;stroke-opacity:1" />
          <path
             sodipodi:nodetypes="ccccc"
             inkscape:connector-curvature="0"
             id="path5593"
             d="m -33.786667,-207.54001 15.280219,8.52019 0.534539,17.76392 -15.436782,-8.97645 z"
             style="fill:#5c8001;fill-opacity:1;stroke:none;stroke-width:0.26458299px;stroke-linecap:butt;stroke-linejoin:miter;stroke-opacity:1" />
          <path
             inkscape:connector-curvature="0"
             id="path5595"
             d="m -14.699824,-199.58678 0.26727,18.70886 16.8379797,-10.4235 -0.534539,-17.90707 z"
             style="fill:#e3170a;fill-opacity:1;stroke:none;stroke-width:0.26458299px;stroke-linecap:butt;stroke-linejoin:miter;stroke-opacity:1" />
          <path
             sodipodi:nodetypes="ccccc"
             inkscape:connector-curvature="0"
             id="path5597"
             d="m -9.621703,-174.99799 15.7689022,-9.54369 0.3131256,17.41865 -15.5474887,10.56664 z"
             style="fill:#009ddc;fill-opacity:1;stroke:none;stroke-width:0.26458299px;stroke-linecap:butt;stroke-linejoin:miter;stroke-opacity:1" />
          <path
             inkscape:connector-curvature="0"
             id="path5599"
             d="m 16.570711,-208.1394 v 19.51067 l 16.83798,-8.81989 0.267269,-19.77795 z"
             style="fill:#e89005;fill-opacity:1;stroke:none;stroke-width:0.26458299px;stroke-linecap:butt;stroke-linejoin:miter;stroke-opacity:1" />
          <path
             inkscape:connector-curvature="0"
             id="path5601"
             d="m -32.072344,-238.8754 15.768903,10.95805 15.76890195,-10.42351 L -15.875,-248.04168 Z"
             style="fill:#9a009f;fill-opacity:1;stroke:none;stroke-width:0.26458299px;stroke-linecap:butt;stroke-linejoin:miter;stroke-opacity:1" />
          <circle
             r="2.6458333"
             cy="-221.74329"
             cx="-52.678963"
             id="path5605"
             style="opacity:1;fill:#000000;fill-opacity:1;stroke:none;stroke-width:0.53849602;stroke-miterlimit:4;stroke-dasharray:none;stroke-opacity:1" />
          <ellipse
             ry="2.1956542"
             rx="2.1112943"
             cy="-210.48734"
             cx="3.1803725"
             id="path5607"
             style="opacity:1;fill:#000000;fill-opacity:1;stroke:none;stroke-width:0.529167;stroke-miterlimit:4;stroke-dasharray:none;stroke-opacity:1" />
          <circle
             r="2.6458333"
             cy="-232.43407"
             cx="4.2494507"
             id="path5609"
             style="opacity:1;fill:#000000;fill-opacity:1;stroke:none;stroke-width:0.63525897;stroke-miterlimit:4;stroke-dasharray:none;stroke-opacity:1" />
          <circle
             r="1.3229166"
             cy="-221.75671"
             cx="-14.552083"
             id="path5611"
             style="opacity:1;fill:#000000;fill-opacity:1;stroke:none;stroke-width:0.64589602;stroke-miterlimit:4;stroke-dasharray:none;stroke-opacity:1" />
          <circle
             r="1.3229166"
             cy="-222.02399"
             cx="21.09549"
             id="path5613"
             style="opacity:1;fill:#000000;fill-opacity:1;stroke:none;stroke-width:0.53465003;stroke-miterlimit:4;stroke-dasharray:none;stroke-opacity:1" />
          <circle
             r="1.984375"
             cy="-179.58456"
             cx="21.015459"
             id="path5615"
             style="opacity:1;fill:#000000;fill-opacity:1;stroke:none;stroke-width:0.58911997;stroke-miterlimit:4;stroke-dasharray:none;stroke-opacity:1" />
          <circle
             r="1.984375"
             cy="-178.58598"
             cx="-16.227928"
             id="path5617"
             style="opacity:1;fill:#000000;fill-opacity:1;stroke:none;stroke-width:0.523848;stroke-miterlimit:4;stroke-dasharray:none;stroke-opacity:1" />
          <ellipse
             ry="1.0307497"
             rx="1.1445913"
             cy="-157.0526"
             cx="-15.698762"
             id="path5619"
             style="opacity:1;fill:#000000;fill-opacity:1;stroke:none;stroke-width:0.529167;stroke-miterlimit:4;stroke-dasharray:none;stroke-opacity:1" />
          <circle
             r="1.3229166"
             cy="-166.9826"
             cx="-35.014992"
             id="path5621"
             style="opacity:1;fill:#000000;fill-opacity:1;stroke:none;stroke-width:0.65998697;stroke-miterlimit:4;stroke-dasharray:none;stroke-opacity:1" />
          <circle
             r="1.3229166"
             cy="-211.06593"
             cx="-35.293007"
             id="path5623"
             style="opacity:1;fill:#000000;fill-opacity:1;stroke:none;stroke-width:0.47820601;stroke-miterlimit:4;stroke-dasharray:none;stroke-opacity:1" />
          <circle
             r="3.687722"
             cy="-221.75671"
             cx="-14.552083"
             id="path5625"
             style="opacity:1;fill:none;fill-opacity:1;stroke:#000000;stroke-width:0.56205601;stroke-miterlimit:4;stroke-dasharray:none;stroke-opacity:1" />
          <ellipse
             ry="5.1606717"
             rx="5.1606712"
             cy="-210.48734"
             cx="3.1803725"
             id="path5627"
             style="opacity:1;fill:none;fill-opacity:1;stroke:#000000;stroke-width:0.26199001;stroke-miterlimit:4;stroke-dasharray:none;stroke-opacity:1" />
          <ellipse
             ry="2.7180061"
             rx="2.7180064"
             cy="-157.0526"
             cx="-15.698762"
             id="path5629"
             style="opacity:1;fill:none;fill-opacity:1;stroke:#000000;stroke-width:0.384821;stroke-miterlimit:4;stroke-dasharray:none;stroke-opacity:1" />
        </g>
      </g>
    </g>
  </g>
</svg>
